{
	"id": "a03ed15a-d820-44e3-8c6e-58029d36d7f6",
	"values": [
		{
			"key": "currentDate",
			"value": "",
			"enabled": true
		},
		{
			"key": "GRINNING",
			"value": "",
			"enabled": true
		}
	],
	"name": "My Workspace Globals",
	"_postman_variable_scope": "globals",
	"_postman_exported_at": "2020-10-16T15:59:55.275Z",
	"_postman_exported_using": "Postman/7.34.0"
}